[
    [
        "2019-12-15",
        818727
    ],
    [
        "2019-12-17",
        818712
    ],
    [
        "2019-12-18",
        818736
    ],
    [
        "2019-12-21",
        820196
    ],
    [
        "2019-12-24",
        805272
    ],
    [
        "2019-12-27",
        820968
    ],
    [
        "2020-01-01",
        821418
    ],
    [
        "2020-01-04",
        806995
    ],
    [
        "2020-01-05",
        823174
    ],
    [
        "2020-01-11",
        824791
    ],
    [
        "2020-01-12",
        824816
    ],
    [
        "2020-01-24",
        808729
    ],
    [
        "2020-01-26",
        824709
    ],
    [
        "2020-01-27",
        809160
    ],
    [
        "2020-02-01",
        824637
    ],
    [
        "2020-02-09",
        824733
    ],
    [
        "2020-02-23",
        808587
    ],
    [
        "2020-02-24",
        824831
    ],
    [
        "2020-02-27",
        808754
    ],
    [
        "2020-03-03",
        808837
    ],
    [
        "2020-03-09",
        807859
    ],
    [
        "2020-03-15",
        807966
    ],
    [
        "2020-03-16",
        808011
    ],
    [
        "2020-03-19",
        808033
    ],
    [
        "2020-03-22",
        808079
    ],
    [
        "2020-03-24",
        825209
    ],
    [
        "2020-03-25",
        809251
    ],
    [
        "2020-03-28",
        809246
    ],
    [
        "2020-03-29",
        809015
    ],
    [
        "2020-04-03",
        809998
    ],
    [
        "2020-04-04",
        825449
    ],
    [
        "2020-04-08",
        810522
    ],
    [
        "2020-04-11",
        810984
    ],
    [
        "2020-04-13",
        826799
    ]
]